af_weather
…
# write_rds(sar_df, path = "data/sar_df.rds")

sar_df <- read_rds("data/sar_df.rds")

sar_df

## # A tibble: 1,506,584 x 8
##    location     dttm                 wbgt heat_index    rh temp_f dewp_f utci_f
##    <chr>        <dttm>              <dbl>      <dbl> <dbl>  <dbl>  <dbl>  <dbl>
##  1 Fort Benning 2008-01-01 00:00:00  NA         NA   100     46.4   46.4   51.6
##  2 Fort Benning 2008-01-01 01:00:00  44.2       44.6  93.3   44.6   42.8   37.9
##  3 Fort Benning 2008-01-01 02:00:00  NA         41   100     41     41     46.4
##  4 Fort Benning 2008-01-01 03:00:00  40.6       41    93.2   41     39.2   46.2
##  5 Fort Benning 2008-01-01 04:00:00  NA         37.4 100     37.4   37.4   42.8
##  6 Fort Benning 2008-01-01 05:00:00  NA         37.4 100     37.4   37.4   35.8
##  7 Fort Benning 2008-01-01 06:00:00  NA         35.6 100     35.6   35.6   33.8
##  8 Fort Benning 2008-01-01 07:00:00  NA         35.6 100     35.6   35.6   30.1
##  9 Fort Benning 2008-01-01 08:00:00  35.2       35.6  93.0   35.6   33.8   40.8
## 10 Fort Benning 2008-01-01 09:00:00  35.2       35.6  93.0   35.6   33.8   29.9
## # ... with 1,506,574 more rows
…
Compare with NLDAS-2 temperature and heat indices

nldas_wide <- read_rds("data/nldas_wide.rds") 

nldas_wide

## # A tibble: 6,472,525 x 19
##    utc_dttm            local_dttm          installation longitude latitude   TMP
##    <dttm>              <dttm>              <chr>            <dbl>    <dbl> <dbl>
##  1 1990-01-01 00:00:00 1989-12-31 18:00:00 eglin_afb        -86.5     30.6  291.
##  2 1990-01-01 01:00:00 1989-12-31 19:00:00 eglin_afb        -86.5     30.6  290.
##  3 1990-01-01 02:00:00 1989-12-31 20:00:00 eglin_afb        -86.5     30.6  289.
##  4 1990-01-01 03:00:00 1989-12-31 21:00:00 eglin_afb        -86.5     30.6  288.
##  5 1990-01-01 04:00:00 1989-12-31 22:00:00 eglin_afb        -86.5     30.6  287.
##  6 1990-01-01 05:00:00 1989-12-31 23:00:00 eglin_afb        -86.5     30.6  287.
##  7 1990-01-01 06:00:00 1990-01-01 00:00:00 eglin_afb        -86.5     30.6  286.
##  8 1990-01-01 07:00:00 1990-01-01 01:00:00 eglin_afb        -86.5     30.6  285.
##  9 1990-01-01 08:00:00 1990-01-01 02:00:00 eglin_afb        -86.5     30.6  284.
## 10 1990-01-01 09:00:00 1990-01-01 03:00:00 eglin_afb        -86.5     30.6  283.
## # ... with 6,472,515 more rows, and 13 more variables: SPFH <dbl>, PRES <dbl>,
## #   UGRD <dbl>, VGRD <dbl>, DSWRF <dbl>, windspeed <dbl>, tmp_f <dbl>,
## #   tmp_c <dbl>, rh <dbl>, dp_c <dbl>, heat_index <dbl>, wbgt <dbl>,
## #   wbgt_f <dbl>
…
af_nldas_compare 

## # A tibble: 1,506,584 x 8
##    installation utc_dttm            wbgt_af heat_index_af temp_af wbgt_nldas
##    <chr>        <dttm>                <dbl>         <dbl>   <dbl>      <dbl>
##  1 fort_bennin~ 2008-01-01 00:00:00    NA            NA      46.4       46.4
##  2 fort_bennin~ 2008-01-01 01:00:00    44.2          44.6    44.6       46.3
##  3 fort_bennin~ 2008-01-01 02:00:00    NA            41      41         46.2
##  4 fort_bennin~ 2008-01-01 03:00:00    40.6          41      41         46.1
##  5 fort_bennin~ 2008-01-01 04:00:00    NA            37.4    37.4       45.2
##  6 fort_bennin~ 2008-01-01 05:00:00    NA            37.4    37.4       44.4
##  7 fort_bennin~ 2008-01-01 06:00:00    NA            35.6    35.6       43.5
##  8 fort_bennin~ 2008-01-01 07:00:00    NA            35.6    35.6       42.8
##  9 fort_bennin~ 2008-01-01 08:00:00    35.2          35.6    35.6       42.1
## 10 fort_bennin~ 2008-01-01 09:00:00    35.2          35.6    35.6       41.4
## # ... with 1,506,574 more rows, and 2 more variables: heat_index_nldas <dbl>,
## #   tmp_nldas <dbl>
…
