annual_tables
…
heat_risk_hours <-
  heat_risk_hours %>% 
    filter(year < 2019,
           year > 1989) %>% 
    as_tibble() %>% 
    nest(., heat_risk_hours = year:hours_wbgt_gt90)

absolutes_annual <-
  nldas_annual %>% 
  left_join(heat_risk_days, by = "installation") %>% 
  left_join(heat_risk_hours, by = "installation")

absolutes_annual

## # A tibble: 25 x 4
##    installation       annual_mean heat_risk_days heat_risk_hours
##    <chr>           <list<df[,4]>> <list<df[,9]>>  <list<df[,9]>>
##  1 eglin_afb             [29 x 4]       [29 x 9]        [29 x 9]
##  2 fort_benning_ga       [29 x 4]       [29 x 9]        [29 x 9]
##  3 fort_bliss            [29 x 4]       [29 x 9]        [29 x 9]
##  4 fort_bragg            [29 x 4]       [29 x 9]        [29 x 9]
##  5 fort_campbell         [29 x 4]       [29 x 9]        [29 x 9]
##  6 fort_carson           [29 x 4]       [29 x 9]        [29 x 9]
##  7 fort_drum             [29 x 4]       [29 x 9]        [29 x 9]
##  8 fort_gordon           [29 x 4]       [29 x 9]        [29 x 9]
##  9 fort_hood             [29 x 4]       [29 x 9]        [29 x 9]
## 10 fort_jackson          [29 x 4]       [29 x 9]        [29 x 9]
## # ... with 15 more rows

Join absolute and relative nested list-columns

annual_index_nested <-
  absolutes_annual %>%
  left_join(nldas_climatology, by = "installation") %>% 
  dplyr::select(-c(data, climatology))

annual_index_nested

## # A tibble: 25 x 9
##    installation annual_mean heat_risk_days heat_risk_hours anomaly_daily_m~
##    <chr>        <list<df[,> <list<df[,9]>>  <list<df[,9]>> <list>          
##  1 eglin_afb       [29 x 4]       [29 x 9]        [29 x 9] <tibble [29 x 4~
##  2 fort_bennin~    [29 x 4]       [29 x 9]        [29 x 9] <tibble [29 x 4~
##  3 fort_bliss      [29 x 4]       [29 x 9]        [29 x 9] <tibble [29 x 4~
##  4 fort_bragg      [29 x 4]       [29 x 9]        [29 x 9] <tibble [29 x 4~
##  5 fort_campbe~    [29 x 4]       [29 x 9]        [29 x 9] <tibble [29 x 4~
##  6 fort_carson     [29 x 4]       [29 x 9]        [29 x 9] <tibble [29 x 4~
##  7 fort_drum       [29 x 4]       [29 x 9]        [29 x 9] <tibble [29 x 4~
##  8 fort_gordon     [29 x 4]       [29 x 9]        [29 x 9] <tibble [29 x 4~
##  9 fort_hood       [29 x 4]       [29 x 9]        [29 x 9] <tibble [29 x 4~
## 10 fort_jackson    [29 x 4]       [29 x 9]        [29 x 9] <tibble [29 x 4~
## # ... with 15 more rows, and 4 more variables: anomaly_daily_max <list>,
## #   anomaly_days_mean <list>, anomaly_days_max <list>, sd_days_max <list>
