climatology
…
climatology

nldas_wide <- read_rds("data/nldas_wide.rds")

# Add one second to duplicate times
local_dst_adjust <-
  nldas_wide %>%
    mutate(row = dplyr::row_number()) %>% 
    tsibble::duplicates(key = installation, index = local_dttm) %>% 
    filter(local_dttm != lead(local_dttm, default = "1")) %>% 
    mutate(local_dttm = local_dttm + seconds(1))

local_dst_adjust

## # A tibble: 725 x 20
##    utc_dttm            local_dttm          installation longitude latitude   TMP
##    <dttm>              <dttm>              <chr>            <dbl>    <dbl> <dbl>
##  1 1990-10-28 07:00:00 1990-10-28 01:00:01 eglin_afb        -86.5     30.6  287.
##  2 1991-10-27 07:00:00 1991-10-27 01:00:01 eglin_afb        -86.5     30.6  296.
##  3 1992-10-25 07:00:00 1992-10-25 01:00:01 eglin_afb        -86.5     30.6  292.
##  4 1993-10-31 07:00:00 1993-10-31 01:00:01 eglin_afb        -86.5     30.6  279.
##  5 1994-10-30 07:00:00 1994-10-30 01:00:01 eglin_afb        -86.5     30.6  292.
##  6 1995-10-29 07:00:00 1995-10-29 01:00:01 eglin_afb        -86.5     30.6  285.
##  7 1996-10-27 07:00:00 1996-10-27 01:00:01 eglin_afb        -86.5     30.6  296.
##  8 1997-10-26 07:00:00 1997-10-26 01:00:01 eglin_afb        -86.5     30.6  297.
##  9 1998-10-25 07:00:00 1998-10-25 01:00:01 eglin_afb        -86.5     30.6  288.
## 10 1999-10-31 07:00:00 1999-10-31 01:00:01 eglin_afb        -86.5     30.6  292.
## # ... with 715 more rows, and 14 more variables: SPFH <dbl>, PRES <dbl>,
## #   UGRD <dbl>, VGRD <dbl>, DSWRF <dbl>, windspeed <dbl>, tmp_f <dbl>,
## #   tmp_c <dbl>, rh <dbl>, dp_c <dbl>, heat_index <dbl>, wbgt <dbl>,
## #   wbgt_f <dbl>, row <int>
…
Construct climatology (1990-2018)

#Construct climatology (1990-2018)

nldas_wide <-
  nldas_wide %>% 
  filter(lubridate::year(local_dttm) < 2019 &
           lubridate::year(local_dttm) > 1989) %>%
    mutate(month = month(local_dttm), 
           day = day(local_dttm)) 

nldas_wide

## # A tibble: 6,355,200 x 7
##    installation    local_dttm          tmp_f heat_index wbgt_f month   day
##    <chr>           <dttm>              <dbl>      <dbl>  <dbl> <dbl> <int>
##  1 eglin_afb       1990-01-01 00:00:00  54.7       54.1   53.2     1     1
##  2 fort_benning_ga 1990-01-01 00:00:00  53.4       52.8   52.1     1     1
##  3 fort_bliss      1990-01-01 00:00:00  38.8       38.8   37.4     1     1
##  4 fort_bragg      1990-01-01 00:00:00  34.4       34.4   32.5     1     1
##  5 fort_campbell   1990-01-01 00:00:00  35.4       35.4   29.9     1     1
##  6 fort_carson     1990-01-01 00:00:00  37.4       37.4   30.7     1     1
##  7 fort_drum       1990-01-01 00:00:00  62.4       62.8   61.5     1     1
##  8 fort_gordon     1990-01-01 00:00:00  40.8       37.0   35.3     1     1
##  9 fort_hood       1990-01-01 00:00:00  58.4       58.4   57.2     1     1
## 10 fort_jackson    1990-01-01 00:00:00  23.2       23.2   20.6     1     1
## # ... with 6,355,190 more rows

nest_nldas <-
  nldas_wide %>% 
    nest(., data = local_dttm:day)

nest_nldas

## # A tibble: 25 x 2
##    installation              data
##    <chr>           <list<df[,6]>>
##  1 eglin_afb        [254,208 x 6]
##  2 fort_benning_ga  [254,208 x 6]
##  3 fort_bliss       [254,208 x 6]
##  4 fort_bragg       [254,208 x 6]
##  5 fort_campbell    [254,208 x 6]
##  6 fort_carson      [254,208 x 6]
##  7 fort_drum        [254,208 x 6]
##  8 fort_gordon      [254,208 x 6]
##  9 fort_hood        [254,208 x 6]
## 10 fort_jackson     [254,208 x 6]
## # ... with 15 more rows

nest_nldas %>% slice(1) %>% unnest(data)

## # A tibble: 254,208 x 7
##    installation local_dttm          tmp_f heat_index wbgt_f month   day
##    <chr>        <dttm>              <dbl>      <dbl>  <dbl> <dbl> <int>
##  1 eglin_afb    1990-01-01 00:00:00  54.7       54.1   53.2     1     1
##  2 eglin_afb    1990-01-01 01:00:00  53.2       52.4   51.5     1     1
##  3 eglin_afb    1990-01-01 02:00:00  51.8       50.7   49.8     1     1
##  4 eglin_afb    1990-01-01 03:00:00  50.4       49     48.0     1     1
##  5 eglin_afb    1990-01-01 04:00:00  48.9       47.3   46.5     1     1
##  6 eglin_afb    1990-01-01 05:00:00  47.4       45.7   45.0     1     1
##  7 eglin_afb    1990-01-01 06:00:00  45.9       44.0   43.4     1     1
##  8 eglin_afb    1990-01-01 07:00:00  46.0       43.8   43.4     1     1
##  9 eglin_afb    1990-01-01 08:00:00  46.0       43.7   44.8     1     1
## 10 eglin_afb    1990-01-01 09:00:00  46.0       43.5   46.1     1     1
## # ... with 254,198 more rows
…
nldas_climatology <- 
  nest_nldas %>% 
    mutate(climatology = 
      map(nest_nldas$data, climatology_function))

nldas_climatology

## # A tibble: 25 x 3
##    installation              data climatology        
##    <chr>           <list<df[,6]>> <list>             
##  1 eglin_afb        [254,208 x 6] <tibble [366 x 18]>
##  2 fort_benning_ga  [254,208 x 6] <tibble [366 x 18]>
##  3 fort_bliss       [254,208 x 6] <tibble [366 x 18]>
##  4 fort_bragg       [254,208 x 6] <tibble [366 x 18]>
##  5 fort_campbell    [254,208 x 6] <tibble [366 x 18]>
##  6 fort_carson      [254,208 x 6] <tibble [366 x 18]>
##  7 fort_drum        [254,208 x 6] <tibble [366 x 18]>
##  8 fort_gordon      [254,208 x 6] <tibble [366 x 18]>
##  9 fort_hood        [254,208 x 6] <tibble [366 x 18]>
## 10 fort_jackson     [254,208 x 6] <tibble [366 x 18]>
## # ... with 15 more rows

nldas_climatology %>% 
  slice(1) %>% 
  pull(climatology) 

## [[1]]
## # A tibble: 366 x 18
## # Groups:   month [12]
##    mon_day month   day mean_tmp max_tmp min_tmp sd_tmp tmp_95th mean_hi max_hi
##    <chr>   <dbl> <int>    <dbl>   <dbl>   <dbl>  <dbl>    <dbl>   <dbl>  <dbl>
##  1 1-1         1     1     55.4    74.6    28.6   10.4     70.2    54.9   75.7
##  2 1-2         1     2     54.4    74.1    26.1   11.9     71.1    53.9   75.1
##  3 1-3         1     3     51.3    75.1    26.0   13.1     71.1    50.7   75.8
##  4 1-4         1     4     51.6    75.3    28.7   12.6     70.9    50.8   75.9
##  5 1-5         1     5     53.4    74.7    23.8   11.8     68.9    52.8   75.6
##  6 1-6         1     6     54.2    75.2    26.0   10.8     70.1    53.5   76.0
##  7 1-7         1     7     51.9    74.2    20.3   11.9     68.5    51.2   75.3
##  8 1-8         1     8     51.7    73.0    21.3   12.5     68.3    51.1   73.6
##  9 1-9         1     9     53.8    75.4    24.4   11.6     69.3    53.3   76.2
## 10 1-10        1    10     54.2    76.6    26.6   11.3     69.8    53.6   77.4
## # ... with 356 more rows, and 8 more variables: min_hi <dbl>, sd_hi <dbl>,
## #   hi_95th <dbl>, mean_wbgt <dbl>, max_wbgt <dbl>, min_wbgt <dbl>,
## #   sd_wbgt <dbl>, wbgt_95th <dbl>
…
