dmed_full_icd
…
Population: Active-duty Army service members

# Outcomes
dmed_tidy_full <- 
  read_rds("data/dmed_tidy_full.rds")

dmed_tidy_full

## # A tibble: 2,313 x 9
##    type             category  year count population  rate location strata hsi  
##    <fct>            <fct>    <int> <dbl>      <dbl> <dbl> <fct>    <fct>  <fct>
##  1 Hospitalizations Male      1990   859     17397.  49.4 benning  gender full 
##  2 Hospitalizations Female    1990   163      1209. 135.  benning  gender full 
##  3 Hospitalizations Total     1990  1022     18606.  54.9 benning  gender full 
##  4 Hospitalizations Male      1991  2048     14962. 137.  benning  gender full 
##  5 Hospitalizations Female    1991   525      1106. 475.  benning  gender full 
##  6 Hospitalizations Total     1991  2573     16067. 160.  benning  gender full 
##  7 Hospitalizations Male      1992  2175     17498. 124.  benning  gender full 
##  8 Hospitalizations Female    1992   443      1186. 374.  benning  gender full 
##  9 Hospitalizations Total     1992  2618     18683. 140.  benning  gender full 
## 10 Hospitalizations Male      1993  2431     17794. 137.  benning  gender full 
## # ... with 2,303 more rows
…
