dmed_models
…
Active-duty service members

Outcome: Ambulatory(Out-patient)

Rate of Heat Stress Illness (any type)

1997 - 2018

# Outcomes
dmed_tidy <- 
  read_rds("data/dmed_tidy.rds")

dmed_tidy

## # A tibble: 11,010 x 9
##    type            category  year count population  rate location strata hsi    
##    <fct>           <fct>    <int> <dbl>      <dbl> <dbl> <fct>    <fct>  <fct>  
##  1 Ambulatory Data Male      1997     0      6057.     0 jackson  gender hexhsa~
##  2 Ambulatory Data Female    1997     0      2749.     0 jackson  gender hexhsa~
##  3 Ambulatory Data Total     1997     0      8806.     0 jackson  gender hexhsa~
##  4 Hospitalizatio~ Male      1997     0      6057.     0 jackson  gender hexhsa~
##  5 Hospitalizatio~ Female    1997     0      2749.     0 jackson  gender hexhsa~
##  6 Hospitalizatio~ Total     1997     0      8806.     0 jackson  gender hexhsa~
##  7 Reportable Eve~ Male      1997     0      6057.     0 jackson  gender hexhsa~
##  8 Reportable Eve~ Female    1997     0      2749.     0 jackson  gender hexhsa~
##  9 Reportable Eve~ Total     1997     0      8806.     0 jackson  gender hexhsa~
## 10 Ambulatory Data Male      1998     0      6456.     0 jackson  gender hexhsa~
## # ... with 11,000 more rows

# Exposures
annual_tables_list <-
  read_rds("data/annual_tables_list.rds")

annual_tables_list

## # A tibble: 25 x 2
## # Groups:   installation [25]
##    installation               data
##    <chr>           <list<df[,30]>>
##  1 eglin_afb             [86 x 30]
##  2 fort_benning_ga       [86 x 30]
##  3 fort_bliss            [86 x 30]
##  4 fort_bragg            [86 x 30]
##  5 fort_campbell         [86 x 30]
##  6 fort_carson           [86 x 30]
##  7 fort_drum             [86 x 30]
##  8 fort_gordon           [86 x 30]
##  9 fort_hood             [86 x 30]
## 10 fort_jackson          [86 x 30]
## # ... with 15 more rows
…
# Join table

joined_rate <-
  index_long %>% 
    left_join(hsi_rates, by = c("installation" = "location", "year" = "year")) %>% 
    drop_na(rate)

joined_rate

## # A tibble: 7,568 x 5
## # Groups:   installation [4]
##    installation    index       year value  rate
##    <chr>           <chr>      <int> <dbl> <dbl>
##  1 fort_benning_ga tmp_f_mean  1997  65.2  5.81
##  2 fort_benning_ga tmp_f_mean  1998  67.7  9.66
##  3 fort_benning_ga tmp_f_mean  1999  66.4 10.3 
##  4 fort_benning_ga tmp_f_mean  2000  65.8  9.50
##  5 fort_benning_ga tmp_f_mean  2001  65.7 11.5 
##  6 fort_benning_ga tmp_f_mean  2002  66.5 11.9 
##  7 fort_benning_ga tmp_f_mean  2003  65.5  9.07
##  8 fort_benning_ga tmp_f_mean  2004  66.1 21.1 
##  9 fort_benning_ga tmp_f_mean  2005  65.7 28.4 
## 10 fort_benning_ga tmp_f_mean  2006  67.0 20.6 
## # ... with 7,558 more rows
…
# Nest by each installation - index pair

annual_hsi_nest <-
  joined_rate %>% 
    nest(data = year:rate) %>% 
    mutate(linear_models = map(data, annual_lm),
           glance = map(linear_models, broom::glance),
           tidy =   map(linear_models, broom::glance))

annual_hsi_nest

## # A tibble: 344 x 6
## # Groups:   installation [4]
##    installation   index              data linear_models glance       tidy       
##    <chr>          <chr>       <list<df[,> <list>        <list>       <list>     
##  1 fort_benning_~ tmp_f_mean     [22 x 3] <lm>          <tibble [1 ~ <tibble [1~
##  2 fort_benning_~ heat_index~    [22 x 3] <lm>          <tibble [1 ~ <tibble [1~
##  3 fort_benning_~ wbgt_f_mean    [22 x 3] <lm>          <tibble [1 ~ <tibble [1~
##  4 fort_benning_~ tmp_f_max      [22 x 3] <lm>          <tibble [1 ~ <tibble [1~
##  5 fort_benning_~ heat_index~    [22 x 3] <lm>          <tibble [1 ~ <tibble [1~
##  6 fort_benning_~ wbgt_f_max     [22 x 3] <lm>          <tibble [1 ~ <tibble [1~
##  7 fort_benning_~ tmp_f_min      [22 x 3] <lm>          <tibble [1 ~ <tibble [1~
##  8 fort_benning_~ heat_index~    [22 x 3] <lm>          <tibble [1 ~ <tibble [1~
##  9 fort_benning_~ wbgt_f_min     [22 x 3] <lm>          <tibble [1 ~ <tibble [1~
## 10 fort_benning_~ tmp_f_sd       [22 x 3] <lm>          <tibble [1 ~ <tibble [1~
## # ... with 334 more rows
…
