dmed_read
…
Combine ICD9 and ICD 10 dataframes

dmed_tidy <-
  rbind(icd9_from1990_df, icd9_from2006_df, icd10_from2016_df) %>% 
  na.omit()

#saveRDS(dmed_tidy, file = "D:/dmed/dmed_tidy.rds")

dmed_tidy <- 
  read_rds("D:/dmed/dmed_tidy.rds")

dmed_tidy

## # A tibble: 11,010 x 9
##    type            category  year count population  rate location strata hsi    
##    <fct>           <fct>    <int> <dbl>      <dbl> <dbl> <fct>    <fct>  <fct>  
##  1 Ambulatory Data Male      1997     0      6057.     0 jackson  gender hexhsa~
##  2 Ambulatory Data Female    1997     0      2749.     0 jackson  gender hexhsa~
##  3 Ambulatory Data Total     1997     0      8806.     0 jackson  gender hexhsa~
##  4 Hospitalizatio~ Male      1997     0      6057.     0 jackson  gender hexhsa~
##  5 Hospitalizatio~ Female    1997     0      2749.     0 jackson  gender hexhsa~
##  6 Hospitalizatio~ Total     1997     0      8806.     0 jackson  gender hexhsa~
##  7 Reportable Eve~ Male      1997     0      6057.     0 jackson  gender hexhsa~
##  8 Reportable Eve~ Female    1997     0      2749.     0 jackson  gender hexhsa~
##  9 Reportable Eve~ Total     1997     0      8806.     0 jackson  gender hexhsa~
## 10 Ambulatory Data Male      1998     0      6456.     0 jackson  gender hexhsa~
## # ... with 11,000 more rows
…
## Warning: Factor `location` contains implicit NA, consider using
## `forcats::fct_explicit_na`

## # A tibble: 1 x 2
##   location     n
##   <fct>    <int>
## 1 <NA>         0

dmed_tidy %>%
  count(year)

## # A tibble: 29 x 2
##     year     n
##    <int> <int>
##  1  1990    94
##  2  1991    94
##  3  1992    94
##  4  1993    94
##  5  1994    94
##  6  1995   188
##  7  1996   188
##  8  1997   282
##  9  1998   282
## 10  1999   282
## # ... with 19 more rows
