dmed_models_hospitalization
…
Days mean temperature index above Standard Deviation(s) of mean daily temperature climate normal

- temperature, heat index, WBGT above 1 or 2 standard deviations of daily normal

Days maximum temperature index above Standard Deviation(s) of max daily temperature climate normal

- temperature, heat index, WBGT above 1 or 2 standard deviations of maximum daily normal

# Outcomes
dmed_tidy <- 
  read_rds("data/dmed_tidy.rds")

dmed_tidy

## # A tibble: 11,955 x 9
##    type            category  year count population  rate location strata hsi    
##    <fct>           <fct>    <int> <dbl>      <dbl> <dbl> <fct>    <fct>  <fct>  
##  1 Ambulatory Data Male      1997     0      6057.     0 jackson  gender hexhsa~
##  2 Ambulatory Data Female    1997     0      2749.     0 jackson  gender hexhsa~
##  3 Ambulatory Data Total     1997     0      8806.     0 jackson  gender hexhsa~
##  4 Hospitalizatio~ Male      1997     0      6057.     0 jackson  gender hexhsa~
##  5 Hospitalizatio~ Female    1997     0      2749.     0 jackson  gender hexhsa~
##  6 Hospitalizatio~ Total     1997     0      8806.     0 jackson  gender hexhsa~
##  7 Reportable Eve~ Male      1997     0      6057.     0 jackson  gender hexhsa~
##  8 Reportable Eve~ Female    1997     0      2749.     0 jackson  gender hexhsa~
##  9 Reportable Eve~ Total     1997     0      8806.     0 jackson  gender hexhsa~
## 10 Ambulatory Data Male      1998     0      6456.     0 jackson  gender hexhsa~
## # ... with 11,945 more rows

# Exposures
annual_tables_list <-
  read_rds("data/annual_tables_list.rds")

annual_tables_list

## # A tibble: 25 x 2
## # Groups:   installation [25]
##    installation               data
##    <chr>           <list<df[,31]>>
##  1 eglin_afb             [86 x 31]
##  2 fort_benning_ga       [86 x 31]
##  3 fort_bliss            [86 x 31]
##  4 fort_bragg            [86 x 31]
##  5 fort_campbell         [86 x 31]
##  6 fort_carson           [86 x 31]
##  7 fort_drum             [86 x 31]
##  8 fort_gordon           [86 x 31]
##  9 fort_hood             [86 x 31]
## 10 fort_jackson          [86 x 31]
## # ... with 15 more rows
…
hsi_rates

## # A tibble: 319 x 3
##    location      year  rate
##    <chr>        <int> <dbl>
##  1 fort_jackson  1990 0    
##  2 fort_jackson  1991 1.58 
##  3 fort_jackson  1992 0.473
##  4 fort_jackson  1993 0.215
##  5 fort_jackson  1994 0.599
##  6 fort_jackson  1995 0    
##  7 fort_jackson  1996 0.112
##  8 fort_jackson  1997 0    
##  9 fort_jackson  1998 0.751
## 10 fort_jackson  1999 0.305
## # ... with 309 more rows

# Join table

joined_rate <-
  index_long %>% 
    left_join(hsi_rates, by = c("installation" = "location", "year" = "year")) %>% 
    drop_na(rate)

joined_rate

## # A tibble: 27,434 x 5
## # Groups:   installation [11]
##    installation    index       year value  rate
##    <chr>           <chr>      <int> <dbl> <dbl>
##  1 fort_benning_ga tmp_f_mean  1990  68.1 0.161
##  2 fort_benning_ga tmp_f_mean  1991  66.5 0.871
##  3 fort_benning_ga tmp_f_mean  1992  64.7 1.39 
##  4 fort_benning_ga tmp_f_mean  1993  65.4 0.732
##  5 fort_benning_ga tmp_f_mean  1994  65.5 1.23 
##  6 fort_benning_ga tmp_f_mean  1995  65.7 1.74 
##  7 fort_benning_ga tmp_f_mean  1996  64.7 0.582
##  8 fort_benning_ga tmp_f_mean  1997  65.2 1.47 
##  9 fort_benning_ga tmp_f_mean  1998  67.7 1.33 
## 10 fort_benning_ga tmp_f_mean  1999  66.4 1.45 
## # ... with 27,424 more rows
…
# Nest by each installation - index pair

annual_hsi_nest <-
  joined_rate %>% 
    nest(data = year:rate) %>% 
    mutate(linear_models = map(data, annual_lm),
           glance = map(linear_models, broom::glance),
           tidy =   map(linear_models, broom::glance))

annual_hsi_nest

## # A tibble: 946 x 6
## # Groups:   installation [11]
##    installation   index              data linear_models glance       tidy       
##    <chr>          <chr>       <list<df[,> <list>        <list>       <list>     
##  1 fort_benning_~ tmp_f_mean     [29 x 3] <lm>          <tibble [1 ~ <tibble [1~
##  2 fort_benning_~ heat_index~    [29 x 3] <lm>          <tibble [1 ~ <tibble [1~
##  3 fort_benning_~ wbgt_f_mean    [29 x 3] <lm>          <tibble [1 ~ <tibble [1~
##  4 fort_benning_~ tmp_f_max      [29 x 3] <lm>          <tibble [1 ~ <tibble [1~
##  5 fort_benning_~ heat_index~    [29 x 3] <lm>          <tibble [1 ~ <tibble [1~
##  6 fort_benning_~ wbgt_f_max     [29 x 3] <lm>          <tibble [1 ~ <tibble [1~
##  7 fort_benning_~ tmp_f_min      [29 x 3] <lm>          <tibble [1 ~ <tibble [1~
##  8 fort_benning_~ heat_index~    [29 x 3] <lm>          <tibble [1 ~ <tibble [1~
##  9 fort_benning_~ wbgt_f_min     [29 x 3] <lm>          <tibble [1 ~ <tibble [1~
## 10 fort_benning_~ tmp_f_sd       [29 x 3] <lm>          <tibble [1 ~ <tibble [1~
## # ... with 936 more rows
…
