extract_end2019
…
## Warning: Calling `as_tibble()` on a vector is discouraged, because the behavior is likely to change in the future. Use `tibble::enframe(name = NULL)` instead.
## This warning is displayed once per session.

# saveRDS(file_list, "data/file_list.rds")

#file_list <- readRDS("data/file_list.rds")
file_list 

## # A tibble: 4,056 x 4
##    value                      path                              date       hour 
##    <chr>                      <chr>                             <date>     <fct>
##  1 NLDAS_FORA0125_H.A2019071~ D:/nldas_end2019/NLDAS_FORA0125_~ 2019-07-15 1300 
##  2 NLDAS_FORA0125_H.A2019071~ D:/nldas_end2019/NLDAS_FORA0125_~ 2019-07-15 1400 
##  3 NLDAS_FORA0125_H.A2019071~ D:/nldas_end2019/NLDAS_FORA0125_~ 2019-07-15 1500 
##  4 NLDAS_FORA0125_H.A2019071~ D:/nldas_end2019/NLDAS_FORA0125_~ 2019-07-15 1600 
##  5 NLDAS_FORA0125_H.A2019071~ D:/nldas_end2019/NLDAS_FORA0125_~ 2019-07-15 1700 
##  6 NLDAS_FORA0125_H.A2019071~ D:/nldas_end2019/NLDAS_FORA0125_~ 2019-07-15 1800 
##  7 NLDAS_FORA0125_H.A2019071~ D:/nldas_end2019/NLDAS_FORA0125_~ 2019-07-15 1900 
##  8 NLDAS_FORA0125_H.A2019071~ D:/nldas_end2019/NLDAS_FORA0125_~ 2019-07-15 2000 
##  9 NLDAS_FORA0125_H.A2019071~ D:/nldas_end2019/NLDAS_FORA0125_~ 2019-07-15 2100 
## 10 NLDAS_FORA0125_H.A2019071~ D:/nldas_end2019/NLDAS_FORA0125_~ 2019-07-15 2200 
## # ... with 4,046 more rows
…
