installation_nldas
…
# Fort Benning (1st set)
read_rds("data/base_nldas/fort_benning_ga.rds")

## # A tibble: 258,901 x 7
##    date_time       TMP    SPFH    PRES  UGRD   VGRD DSWRF
##    <chr>         <dbl>   <dbl>   <dbl> <dbl>  <dbl> <dbl>
##  1 19900101_0000  290. 0.0116   99900.  3.54  2.63      0
##  2 19900101_0100  289. 0.0109   99947.  4.66  1.58      0
##  3 19900101_0200  288. 0.0103   99995.  5.78  0.530     0
##  4 19900101_0300  288. 0.00959 100042.  6.90 -0.520     0
##  5 19900101_0400  286. 0.00883 100122.  6.91 -1.19      0
##  6 19900101_0500  285. 0.00806 100200.  6.93 -1.87      0
##  7 19900101_0600  284. 0.00730 100279.  6.95 -2.55      0
##  8 19900101_0700  283. 0.00664 100367.  6.60 -3.04      0
##  9 19900101_0800  282. 0.00598 100453.  6.24 -3.54      0
## 10 19900101_0900  281. 0.00532 100541.  5.89 -4.03      0
## # ... with 258,891 more rows

#Eglin AFB (2nd set)
read_rds("data/base_nldas/eglin_afb.rds")

## # A tibble: 258,901 x 7
##    date_time       TMP    SPFH    PRES  UGRD  VGRD DSWRF
##    <chr>         <dbl>   <dbl>   <dbl> <dbl> <dbl> <dbl>
##  1 19900101_0000  291. 0.0121  100808.  3.81 -1.38     0
##  2 19900101_0100  290. 0.0113  100883.  4.02 -2.18     0
##  3 19900101_0200  289. 0.0106  100957.  4.23 -2.97     0
##  4 19900101_0300  288. 0.00982 101033.  4.44 -3.77     0
##  5 19900101_0400  287. 0.00929 101163.  4.86 -4.20     0
##  6 19900101_0500  287. 0.00875 101294.  5.29 -4.63     0
##  7 19900101_0600  286. 0.00822 101424.  5.71 -5.05     0
##  8 19900101_0700  285. 0.00757 101481.  5.55 -5.25     0
##  9 19900101_0800  284. 0.00693 101537.  5.40 -5.45     0
## 10 19900101_0900  283. 0.00629 101593.  5.24 -5.64     0
## # ... with 258,891 more rows
…
nldas_df

# write_rds(nldas_df, path = "data/nldas_df.rds")

nldas_df <- read_rds("data/nldas_df.rds")
nldas_df

## # A tibble: 6,472,525 x 8
##    date_time       TMP    SPFH    PRES  UGRD  VGRD DSWRF installation
##    <chr>         <dbl>   <dbl>   <dbl> <dbl> <dbl> <dbl> <chr>       
##  1 19900101_0000  291. 0.0121  100808.  3.81 -1.38     0 eglin_afb   
##  2 19900101_0100  290. 0.0113  100883.  4.02 -2.18     0 eglin_afb   
##  3 19900101_0200  289. 0.0106  100957.  4.23 -2.97     0 eglin_afb   
##  4 19900101_0300  288. 0.00982 101033.  4.44 -3.77     0 eglin_afb   
##  5 19900101_0400  287. 0.00929 101163.  4.86 -4.20     0 eglin_afb   
##  6 19900101_0500  287. 0.00875 101294.  5.29 -4.63     0 eglin_afb   
##  7 19900101_0600  286. 0.00822 101424.  5.71 -5.05     0 eglin_afb   
##  8 19900101_0700  285. 0.00757 101481.  5.55 -5.25     0 eglin_afb   
##  9 19900101_0800  284. 0.00693 101537.  5.40 -5.45     0 eglin_afb   
## 10 19900101_0900  283. 0.00629 101593.  5.24 -5.64     0 eglin_afb   
## # ... with 6,472,515 more rows

# Inspect completeness
nldas_df %>% 
  group_by(installation) %>% 
  summarize(unique_hour = n_distinct(.$date_time)) %>% 
  arrange(unique_hour)

## # A tibble: 25 x 2
##    installation    unique_hour
##    <chr>                 <int>
##  1 eglin_afb            258901
##  2 fort_benning_ga      258901
##  3 fort_bliss           258901
##  4 fort_bragg           258901
##  5 fort_campbell        258901
##  6 fort_carson          258901
##  7 fort_drum            258901
##  8 fort_gordon          258901
##  9 fort_hood            258901
## 10 fort_jackson         258901
## # ... with 15 more rows
…
