mixed_models_poisson
…
Days mean temperature index above Standard Deviation(s) of mean daily temperature climate normal

- temperature, heat index, WBGT above 1 or 2 standard deviations of daily normal

Days maximum temperature index above Standard Deviation(s) of max daily temperature climate normal

- temperature, heat index, WBGT above 1 or 2 standard deviations of maximum daily normal

# Outcomes
dmed_tidy <- 
  read_rds("data/dmed_tidy.rds")

dmed_tidy

## # A tibble: 11,955 x 9
##    type            category  year count population  rate location strata hsi    
##    <fct>           <fct>    <int> <dbl>      <dbl> <dbl> <fct>    <fct>  <fct>  
##  1 Ambulatory Data Male      1997     0      6057.     0 jackson  gender hexhsa~
##  2 Ambulatory Data Female    1997     0      2749.     0 jackson  gender hexhsa~
##  3 Ambulatory Data Total     1997     0      8806.     0 jackson  gender hexhsa~
##  4 Hospitalizatio~ Male      1997     0      6057.     0 jackson  gender hexhsa~
##  5 Hospitalizatio~ Female    1997     0      2749.     0 jackson  gender hexhsa~
##  6 Hospitalizatio~ Total     1997     0      8806.     0 jackson  gender hexhsa~
##  7 Reportable Eve~ Male      1997     0      6057.     0 jackson  gender hexhsa~
##  8 Reportable Eve~ Female    1997     0      2749.     0 jackson  gender hexhsa~
##  9 Reportable Eve~ Total     1997     0      8806.     0 jackson  gender hexhsa~
## 10 Ambulatory Data Male      1998     0      6456.     0 jackson  gender hexhsa~
## # ... with 11,945 more rows

# Exposures
annual_tables_list <-
  read_rds("data/annual_tables_list.rds")

annual_tables_list

## # A tibble: 25 x 2
## # Groups:   installation [25]
##    installation               data
##    <chr>           <list<df[,31]>>
##  1 eglin_afb             [86 x 31]
##  2 fort_benning_ga       [86 x 31]
##  3 fort_bliss            [86 x 31]
##  4 fort_bragg            [86 x 31]
##  5 fort_campbell         [86 x 31]
##  6 fort_carson           [86 x 31]
##  7 fort_drum             [86 x 31]
##  8 fort_gordon           [86 x 31]
##  9 fort_hood             [86 x 31]
## 10 fort_jackson          [86 x 31]
## # ... with 15 more rows

index_heat_key <-
  readxl::read_excel("data/index_heat_key.xlsx")

index_heat_key

## # A tibble: 84 x 4
##    index        description                                 index_type index_var
##    <chr>        <chr>                                       <chr>      <chr>    
##  1 tmp_f_mean   Annual mean heat index (full calendar year) Absolute   T        
##  2 heat_index_~ Annual mean WBGT (full calendar year)       Absolute   HI       
##  3 wbgt_f_mean  Annual mean temperature (full calendar yea~ Absolute   WBGT     
##  4 tmp_f_max    Maximum temperature during the year         Absolute   T        
##  5 heat_index_~ Maximum heat index during the year          Absolute   HI       
##  6 wbgt_f_max   Maximum WBGT during the year                Absolute   WBGT     
##  7 tmp_f_min    Minimum temperature during the year         Absolute   T        
##  8 heat_index_~ Minimum heat index during the year          Absolute   HI       
##  9 wbgt_f_min   Minimum WBGT during the year                Absolute   WBGT     
## 10 tmp_f_sd     Standard deviation of hourly temperatures ~ Absolute   T        
## # ... with 74 more rows
…
# Join to indices of heat; center and scale heat index value (pooled, for each index/type - pooled over all included locations and years)  
  
joined_hsi <-
  index_long %>% 
    left_join(dmed_hsi, by = c("installation" = "location", "year" = "year")) %>% 
      drop_na(count) %>% 
  ungroup() %>% 
  dplyr::group_by(index, type) %>% 
      mutate(value_scaled = scale(value, center = TRUE, scale = TRUE)) %>% 
  ungroup() %>% 
  na.omit()

joined_hsi

## # A tibble: 64,764 x 14
##    installation index  year value type  count population  rate count_overall
##    <chr>        <chr> <int> <dbl> <chr> <dbl>      <dbl> <dbl>         <dbl>
##  1 fort_bennin~ tmp_~  1990  68.1 Hosp~     3     18606. 0.161          1022
##  2 fort_bennin~ tmp_~  1991  66.5 Hosp~    14     16067. 0.871          2573
##  3 fort_bennin~ tmp_~  1992  64.7 Hosp~    26     18683. 1.39           2618
##  4 fort_bennin~ tmp_~  1993  65.4 Hosp~    14     19123. 0.732          2845
##  5 fort_bennin~ tmp_~  1994  65.5 Hosp~    22     17948. 1.23           2655
##  6 fort_bennin~ tmp_~  1995  65.7 Repo~    30     16059. 1.87            149
##  7 fort_bennin~ tmp_~  1995  65.7 Hosp~    28     16059. 1.74           2527
##  8 fort_bennin~ tmp_~  1996  64.7 Repo~     6     15459. 0.388            67
##  9 fort_bennin~ tmp_~  1996  64.7 Hosp~     9     15459. 0.582          1896
## 10 fort_bennin~ tmp_~  1997  65.2 Repo~    37     16359. 2.26            257
## # ... with 64,754 more rows, and 5 more variables: rate_overall <dbl>,
## #   burden <dbl>, burden_rate <dbl>, bct <dbl>, value_scaled <dbl>
…
Table of index means and standard deviations (pooled)

For interpreting centered and scaled estimates.

index_mean_sd <- 
  joined_hsi %>%
    group_by(index, type) %>% 
    summarise(
      mean = mean(value),
      sd = sd(value)
    )

index_mean_sd

## # A tibble: 252 x 4
## # Groups:   index [84]
##    index                           type               mean    sd
##    <chr>                           <chr>             <dbl> <dbl>
##  1 days_heat_index_gt85pct         Ambulatory Data   22.9  12.8 
##  2 days_heat_index_gt85pct         Hospitalizations  21.4  12.7 
##  3 days_heat_index_gt85pct         Reportable Events 22.5  12.4 
##  4 days_heat_index_gt85pct_may_sep Ambulatory Data    4.55  5.13
##  5 days_heat_index_gt85pct_may_sep Hospitalizations   4.02  4.91
##  6 days_heat_index_gt85pct_may_sep Reportable Events  4.45  5.01
##  7 days_heat_index_gt90pct         Ambulatory Data   10.7   8.20
##  8 days_heat_index_gt90pct         Hospitalizations   9.88  8.00
##  9 days_heat_index_gt90pct         Reportable Events 10.4   7.99
## 10 days_heat_index_gt90pct_may_sep Ambulatory Data    1.60  2.71
## # ... with 242 more rows
…
random_slope_bct_nest <-
  joined_hsi %>%
    filter(type %in% "Ambulatory Data") %>% 
    dplyr::select(index, everything()) %>% 
      nest(data = installation:value_scaled) %>% 
      mutate(glmer_models = map(data, random_slope_bct_function),
             glance = map(glmer_models, broom::glance),
             tidy =   map(glmer_models, broom::tidy),
             augment = map(glmer_models, broom::augment))

## boundary (singular) fit: see ?isSingular

random_slope_bct_nest 

## # A tibble: 84 x 6
##    index                data glmer_models glance      tidy        augment       
##    <chr>       <list<df[,13> <list>       <list>      <list>      <list>        
##  1 tmp_f_mean     [224 x 13] <glmerMod>   <tibble [1~ <tibble [6~ <df[,16] [224~
##  2 heat_index~    [224 x 13] <glmerMod>   <tibble [1~ <tibble [6~ <df[,16] [224~
##  3 wbgt_f_mean    [224 x 13] <glmerMod>   <tibble [1~ <tibble [6~ <df[,16] [224~
##  4 tmp_f_max      [224 x 13] <glmerMod>   <tibble [1~ <tibble [6~ <df[,16] [224~
##  5 heat_index~    [224 x 13] <glmerMod>   <tibble [1~ <tibble [6~ <df[,16] [224~
##  6 wbgt_f_max     [224 x 13] <glmerMod>   <tibble [1~ <tibble [6~ <df[,16] [224~
##  7 tmp_f_min      [224 x 13] <glmerMod>   <tibble [1~ <tibble [6~ <df[,16] [224~
##  8 heat_index~    [224 x 13] <glmerMod>   <tibble [1~ <tibble [6~ <df[,16] [224~
##  9 wbgt_f_min     [224 x 13] <glmerMod>   <tibble [1~ <tibble [6~ <df[,16] [224~
## 10 tmp_f_sd       [224 x 13] <glmerMod>   <tibble [1~ <tibble [6~ <df[,16] [224~
## # ... with 74 more rows
…
# write_rds(random_slope_bct_nest, "data/random_slope_bct_nest.rds", compress = "none")

# Model summaries

# Arranged by magnitude of index value estimate

random_slope_bct_nest  %>% 
  unnest(tidy, .drop = TRUE) %>% 
  dplyr::select(index, term:group) %>%
  filter(term %in% "value_scaled") %>% 
  arrange(desc(estimate))

## # A tibble: 83 x 7
##    index           term         estimate std.error statistic   p.value group
##    <chr>           <chr>           <dbl>     <dbl>     <dbl>     <dbl> <chr>
##  1 hours_wbgt_gt82 value_scaled    1.03      0.623      1.65 0.0984    fixed
##  2 heat_index_mean value_scaled    0.723     0.182      3.96 0.0000734 fixed
##  3 tmp_f_mean      value_scaled    0.621     0.180      3.45 0.000562  fixed
##  4 days_hi_gt80    value_scaled    0.570     0.226      2.52 0.0116    fixed
##  5 hours_hi_gt80   value_scaled    0.537     0.188      2.86 0.00428   fixed
##  6 days_wbgt_gt82  value_scaled    0.461     0.157      2.93 0.00344   fixed
##  7 hours_wbgt_gt85 value_scaled    0.445     0.157      2.83 0.00468   fixed
##  8 wbgt_f_mean     value_scaled    0.438     0.181      2.43 0.0152    fixed
##  9 hours_hi_gt90   value_scaled    0.399     0.174      2.29 0.0221    fixed
## 10 days_wbgt_gt85  value_scaled    0.392     0.104      3.79 0.000153  fixed
## # ... with 73 more rows

# Arranged by magnitude of "bct" estimate

random_slope_bct_nest  %>% 
  unnest(tidy, .drop = TRUE) %>% 
  dplyr::select(index, term:group) %>%
  filter(term %in% "bct") %>% 
  arrange(desc(estimate))

## # A tibble: 83 x 7
##    index                       term  estimate std.error statistic  p.value group
##    <chr>                       <chr>    <dbl>     <dbl>     <dbl>    <dbl> <chr>
##  1 tmp_f_mean                  bct       2.16     0.510      4.23  2.37e-5 fixed
##  2 wbgt_f_mean                 bct       2.12     0.494      4.30  1.74e-5 fixed
##  3 heat_index_mean             bct       2.07     0.622      3.33  8.70e-4 fixed
##  4 heat_index_max_anomaly_mean bct       1.84     0.511      3.61  3.06e-4 fixed
##  5 days_wbgt_max_gt1sd         bct       1.81     0.621      2.91  3.62e-3 fixed
##  6 tmp_f_max_anomaly_mean      bct       1.77     0.503      3.52  4.30e-4 fixed
##  7 heat_index_mean_anomaly_me~ bct       1.72     0.437      3.94  8.21e-5 fixed
##  8 tmp_f_mean_anomaly_mean     bct       1.71     0.440      3.90  9.79e-5 fixed
##  9 days_hi_gt80                bct       1.70     0.518      3.27  1.06e-3 fixed
## 10 heat_index_mean_anomaly_me~ bct       1.63     0.628      2.59  9.60e-3 fixed
## # ... with 73 more rows

# Arranged by AIC (lower is better)

random_slope_bct_nest  %>% 
  unnest(glance, .drop = TRUE) %>% 
  dplyr::select(index, sigma:df.residual) %>% 
  arrange(AIC)

## # A tibble: 83 x 7
##    index                           sigma logLik   AIC   BIC deviance df.residual
##    <chr>                           <dbl>  <dbl> <dbl> <dbl>    <dbl>       <int>
##  1 heat_index_max_anomaly_mean_ma~     1 -4690. 9392. 9412.    7886.         218
##  2 hours_hi_gt103                      1 -4704. 9420. 9440.    7924.         218
##  3 days_heat_index_max_gt2sd_may_~     1 -4756. 9523. 9544.    8034.         218
##  4 tmp_f_max_anomaly_mean_may_sep      1 -4767. 9546. 9567.    8041.         218
##  5 days_heat_index_max_gt85pct_ma~     1 -4769. 9550. 9570.    8045.         218
##  6 days_tmp_gt85pct_may_sep            1 -4771. 9554. 9574.    8056.         218
##  7 days_heat_index_max_gt1sd_may_~     1 -4780. 9573. 9593.    8066.         218
##  8 hours_hi_gt80                       1 -4782. 9576. 9596.    8072.         218
##  9 days_hi_gt103                       1 -4782. 9577. 9597.    8086.         218
## 10 days_heat_index_max_gt95pct         1 -4795. 9602. 9623.    8103.         218
## # ... with 73 more rows
…
