mixed_models
…
Days mean temperature index above Standard Deviation(s) of mean daily temperature climate normal

- temperature, heat index, WBGT above 1 or 2 standard deviations of daily normal

Days maximum temperature index above Standard Deviation(s) of max daily temperature climate normal

- temperature, heat index, WBGT above 1 or 2 standard deviations of maximum daily normal

# Outcomes
dmed_tidy <- 
  read_rds("data/dmed_tidy.rds")

dmed_tidy

## # A tibble: 11,955 x 9
##    type            category  year count population  rate location strata hsi    
##    <fct>           <fct>    <int> <dbl>      <dbl> <dbl> <fct>    <fct>  <fct>  
##  1 Ambulatory Data Male      1997     0      6057.     0 jackson  gender hexhsa~
##  2 Ambulatory Data Female    1997     0      2749.     0 jackson  gender hexhsa~
##  3 Ambulatory Data Total     1997     0      8806.     0 jackson  gender hexhsa~
##  4 Hospitalizatio~ Male      1997     0      6057.     0 jackson  gender hexhsa~
##  5 Hospitalizatio~ Female    1997     0      2749.     0 jackson  gender hexhsa~
##  6 Hospitalizatio~ Total     1997     0      8806.     0 jackson  gender hexhsa~
##  7 Reportable Eve~ Male      1997     0      6057.     0 jackson  gender hexhsa~
##  8 Reportable Eve~ Female    1997     0      2749.     0 jackson  gender hexhsa~
##  9 Reportable Eve~ Total     1997     0      8806.     0 jackson  gender hexhsa~
## 10 Ambulatory Data Male      1998     0      6456.     0 jackson  gender hexhsa~
## # ... with 11,945 more rows

# Exposures
annual_tables_list <-
  read_rds("data/annual_tables_list.rds")

annual_tables_list

## # A tibble: 25 x 2
## # Groups:   installation [25]
##    installation               data
##    <chr>           <list<df[,31]>>
##  1 eglin_afb             [86 x 31]
##  2 fort_benning_ga       [86 x 31]
##  3 fort_bliss            [86 x 31]
##  4 fort_bragg            [86 x 31]
##  5 fort_campbell         [86 x 31]
##  6 fort_carson           [86 x 31]
##  7 fort_drum             [86 x 31]
##  8 fort_gordon           [86 x 31]
##  9 fort_hood             [86 x 31]
## 10 fort_jackson          [86 x 31]
## # ... with 15 more rows
…
