installation_nldas
…
# GMT adjust

time_zones <-
  read_rds("data/select_bases.rds") %>% 
  dplyr::select(site_name, centroid) %>% 
  mutate(time_zone = lutz::tz_lookup(centroid, crs = 4326, method = "accurate")) %>% 
  as_tibble() %>% 
  dplyr::select(site_name, time_zone) %>% 
  mutate(site_name = stringr::str_replace_all(site_name, " ", "_"),
         site_name =  stringr::str_to_lower(site_name))

time_zones  

## # A tibble: 25 x 2
##    site_name                  time_zone          
##    <chr>                      <chr>              
##  1 fort_benning_ga            America/New_York   
##  2 fort_campbell              America/Chicago    
##  3 mcb_quantico               America/New_York   
##  4 mcrd_san_diego             America/Los_Angeles
##  5 fort_riley                 America/Chicago    
##  6 ntc_and_fort_irwin         America/Los_Angeles
##  7 fort_gordon                America/New_York   
##  8 twentynine_palms_main_base America/Los_Angeles
##  9 fort_sill                  America/Chicago    
## 10 fort_carson                America/Denver     
## # ... with 15 more rows
…
  # Create lat lon table of centroids
  
base_coordinates <- 
  read_rds("data/select_bases.rds") %>%
  as_tibble() %>% 
  dplyr::select(site_name, centroid) %>%  
  mutate(longitude = unlist(map(centroid,1)),
         latitude = unlist(map(centroid,2)),
         site_name = stringr::str_replace_all(site_name, " ", "_"),
         site_name =  stringr::str_to_lower(site_name)) %>% 
  dplyr::select(-centroid)

base_coordinates 

## # A tibble: 25 x 3
##    site_name                  longitude latitude
##    <chr>                          <dbl>    <dbl>
##  1 fort_benning_ga                -84.8     32.4
##  2 fort_campbell                  -87.6     36.6
##  3 mcb_quantico                   -77.5     38.6
##  4 mcrd_san_diego                -117.      32.7
##  5 fort_riley                     -96.8     39.2
##  6 ntc_and_fort_irwin            -117.      35.4
##  7 fort_gordon                    -82.2     33.4
##  8 twentynine_palms_main_base    -116.      34.5
##  9 fort_sill                      -98.5     34.7
## 10 fort_carson                   -105.      38.5
## # ... with 15 more rows
…
# write_rds(nldas_full, path = "data/nldas_full.rds")

“Wide” NLDAS dataframe

# View "wide" NLDAS dataframe
# 
nldas_wide <-
  read_rds("data/nldas_full.rds")

nldas_wide

## # A tibble: 6,472,525 x 19
##    utc_dttm            local_dttm          installation longitude latitude   TMP
##    <dttm>              <dttm>              <chr>            <dbl>    <dbl> <dbl>
##  1 1990-01-01 00:00:00 1989-12-31 18:00:00 eglin_afb        -86.5     30.6  291.
##  2 1990-01-01 01:00:00 1989-12-31 19:00:00 eglin_afb        -86.5     30.6  290.
##  3 1990-01-01 02:00:00 1989-12-31 20:00:00 eglin_afb        -86.5     30.6  289.
##  4 1990-01-01 03:00:00 1989-12-31 21:00:00 eglin_afb        -86.5     30.6  288.
##  5 1990-01-01 04:00:00 1989-12-31 22:00:00 eglin_afb        -86.5     30.6  287.
##  6 1990-01-01 05:00:00 1989-12-31 23:00:00 eglin_afb        -86.5     30.6  287.
##  7 1990-01-01 06:00:00 1990-01-01 00:00:00 eglin_afb        -86.5     30.6  286.
##  8 1990-01-01 07:00:00 1990-01-01 01:00:00 eglin_afb        -86.5     30.6  285.
##  9 1990-01-01 08:00:00 1990-01-01 02:00:00 eglin_afb        -86.5     30.6  284.
## 10 1990-01-01 09:00:00 1990-01-01 03:00:00 eglin_afb        -86.5     30.6  283.
## # ... with 6,472,515 more rows, and 13 more variables: SPFH <dbl>, PRES <dbl>,
## #   UGRD <dbl>, VGRD <dbl>, DSWRF <dbl>, windspeed <dbl>, tmp_f <dbl>,
## #   tmp_c <dbl>, rh <dbl>, dp_c <dbl>, heat_index <dbl>, wbgt <dbl>,
## #   wbgt_f <dbl>

# Mean temperature (K) from Jan 1990 - July 2019 (year-round)
nldas_wide %>% 
  group_by(installation) %>% 
  summarise(mean_tmp = mean(TMP)) %>% 
  arrange(desc(mean_tmp))

## # A tibble: 25 x 2
##    installation                mean_tmp
##    <chr>                          <dbl>
##  1 lackland_afb                    295.
##  2 fort_sam_houston                295.
##  3 fort_gordon                     294.
##  4 eglin_afb                       294.
##  5 mcrd_beaufort_parris_island     294.
##  6 fort_drum                       293.
##  7 twentynine_palms_main_base      293.
##  8 fort_lewis                      293.
##  9 fort_polk                       292.
## 10 fort_benning_ga                 292.
## # ... with 15 more rows

# Mean WBGT (F) from Jan 1990 - July 2019 (year-round)
nldas_wide %>% 
  group_by(installation) %>% 
  summarise(mean_wbgt_f = mean(wbgt_f)) %>% 
  arrange(desc(mean_wbgt_f))

## # A tibble: 25 x 2
##    installation                mean_wbgt_f
##    <chr>                             <dbl>
##  1 eglin_afb                          67.2
##  2 mcrd_beaufort_parris_island        67.1
##  3 fort_sam_houston                   66.7
##  4 lackland_afb                       66.6
##  5 fort_drum                          65.6
##  6 fort_lewis                         64.7
##  7 fort_gordon                        64.3
##  8 fort_benning_ga                    63.5
##  9 mcb_camp_lejeune                   63.0
## 10 fort_hood                          62.3
## # ... with 15 more rows
…
nldas_long <-
  nldas_wide %>%
    dplyr::select(-utc_dttm, -longitude, -latitude) %>% 
    tidyr::gather(key = "variable", value = "value", TMP:wbgt_f) 

#write_rds(nldas_long, path = "data/nldas_long.rds")

nldas_long <-
  read_rds("data/nldas_long.rds")

nldas_long

## # A tibble: 90,615,350 x 4
##    local_dttm          installation variable value
##    <dttm>              <chr>        <chr>    <dbl>
##  1 1989-12-31 18:00:00 eglin_afb    TMP       291.
##  2 1989-12-31 19:00:00 eglin_afb    TMP       290.
##  3 1989-12-31 20:00:00 eglin_afb    TMP       289.
##  4 1989-12-31 21:00:00 eglin_afb    TMP       288.
##  5 1989-12-31 22:00:00 eglin_afb    TMP       287.
##  6 1989-12-31 23:00:00 eglin_afb    TMP       287.
##  7 1990-01-01 00:00:00 eglin_afb    TMP       286.
##  8 1990-01-01 01:00:00 eglin_afb    TMP       285.
##  9 1990-01-01 02:00:00 eglin_afb    TMP       284.
## 10 1990-01-01 03:00:00 eglin_afb    TMP       283.
## # ... with 90,615,340 more rows
