nldas_fable
…
“The R package fable provides a collection of commonly used univariate and multivariate time series forecasting models including exponential smoothing via state space models and automatic ARIMA modelling. These models work within the fable framework, which provides the tools to evaluate, visualise, and combine models in a workflow consistent with the tidyverse.” http://fable.tidyverts.org/

nldas_wide <- read_rds("data/nldas_wide.rds") 

Convert dttm to tsibble object

nldas_tsibble <-
  nldas_wide %>%
  dplyr::select(installation, utc_dttm, tmp_f, heat_index, wbgt_f) %>% 
  tsibble::as_tsibble(., key = installation, index = utc_dttm)

nldas_tsibble 

## # A tsibble: 6,573,925 x 5 [1h] <UTC>
## # Key:       installation [25]
##    installation utc_dttm            tmp_f heat_index wbgt_f
##    <chr>        <dttm>              <dbl>      <dbl>  <dbl>
##  1 eglin_afb    1990-01-01 00:00:00  64.1       64.6   62.9
##  2 eglin_afb    1990-01-01 01:00:00  62.5       62.8   61.3
##  3 eglin_afb    1990-01-01 02:00:00  60.9       61.0   59.6
##  4 eglin_afb    1990-01-01 03:00:00  59.3       59.2   57.8
##  5 eglin_afb    1990-01-01 04:00:00  57.8       57.5   56.4
##  6 eglin_afb    1990-01-01 05:00:00  56.2       55.8   54.8
##  7 eglin_afb    1990-01-01 06:00:00  54.7       54.1   53.2
##  8 eglin_afb    1990-01-01 07:00:00  53.2       52.4   51.5
##  9 eglin_afb    1990-01-01 08:00:00  51.8       50.7   49.8
## 10 eglin_afb    1990-01-01 09:00:00  50.4       49     48.0
## # ... with 6,573,915 more rows
…
Feature extraction

nldas_tsibble %>%
  features(wbgt_f, feat_stl) 

## # A tibble: 25 x 8
##    installation trend_strength seasonal_streng~ spikiness linearity curvature
##    <chr>                 <dbl>            <dbl>     <dbl>     <dbl>     <dbl>
##  1 eglin_afb             0.983            0.898  5.93e-10     174.     111.  
##  2 fort_bennin~          0.985            0.907  7.64e-10     240.     235.  
##  3 fort_bliss            0.987            0.883  8.51e-10     336.      72.5 
##  4 fort_bragg            0.986            0.895  9.33e-10     223.     119.  
##  5 fort_campbe~          0.986            0.960  4.85e-10     173.     172.  
##  6 fort_carson           0.988            0.957  4.94e-10     173.     204.  
##  7 fort_drum             0.982            0.905  7.40e-10     189.     308.  
##  8 fort_gordon           0.986            0.912  7.55e-10      79.1     -3.61
##  9 fort_hood             0.983            0.904  9.69e-10     114.      50.9 
## 10 fort_jackson          0.990            0.915  7.94e-10     336.     234.  
## # ... with 15 more rows, and 2 more variables: seasonal_peak_day <dbl>,
## #   seasonal_trough_day <dbl>
…
